Time of Error: 16/09/2021 12:17 PM
URL: http://localhost:64448/Home/PopupOffers
Form: hiddenOffersPop=Combo+Offer+34%2cZETA+360%2c&FullName=rahul_pop&Email=rahul%40kwebmaker.com&MobileNo=12548562258&City=Mumbai+MMR
QueryString: 
Server Name: localhost
User Agent: Mozilla/5.0 (Windows NT 6.1; Win64; x64) AppleWebKit/537.36 (KHTML, like Gecko) Chrome/93.0.4577.82 Safari/537.36
User IP: ::1
User Host Name: ::1
Message: Failure sending mail.
Source: System
TargetSite: Void Send(System.Net.Mail.MailMessage)
StackTrace:    at System.Net.Mail.SmtpClient.Send(MailMessage message)
   at Hafele_Shagun.Models.Utility.SendEmail(String Emailbody, String[] Toemailids, String Subject, String FilePath, Stream input) in D:\rahul_pc_bk\d\Ajay\Project\Hafele_Shagun\Hafele_Shagun\Models\Utility.cs:line 220


Message: Unable to connect to the remote server
Source: System
TargetSite: System.Net.Sockets.Socket GetConnection(System.Net.PooledStream, System.Object, Boolean, System.Net.IPAddress ByRef, System.Net.Sockets.Socket ByRef, System.Net.Sockets.Socket ByRef)
StackTrace:    at System.Net.ServicePoint.GetConnection(PooledStream PooledStream, Object owner, Boolean async, IPAddress& address, Socket& abortSocket, Socket& abortSocket6)
   at System.Net.PooledStream.Activate(Object owningObject, Boolean async, GeneralAsyncDelegate asyncCallback)
   at System.Net.PooledStream.Activate(Object owningObject, GeneralAsyncDelegate asyncCallback)
   at System.Net.ConnectionPool.GetConnection(Object owningObject, GeneralAsyncDelegate asyncCallback, Int32 creationTimeout)
   at System.Net.Mail.SmtpConnection.GetConnection(ServicePoint servicePoint)
   at System.Net.Mail.SmtpTransport.GetConnection(ServicePoint servicePoint)
   at System.Net.Mail.SmtpClient.GetConnection()
   at System.Net.Mail.SmtpClient.Send(MailMessage message)


Message: No connection could be made because the target machine actively refused it 72.167.234.197:25
Source: System
TargetSite: Void DoConnect(System.Net.EndPoint, System.Net.SocketAddress)
StackTrace:    at System.Net.Sockets.Socket.DoConnect(EndPoint endPointSnapshot, SocketAddress socketAddress)
   at System.Net.ServicePoint.ConnectSocketInternal(Boolean connectFailure, Socket s4, Socket s6, Socket& socket, IPAddress& address, ConnectSocketState state, IAsyncResult asyncResult, Exception& exception)




