Time of Error: 01-06-2021 11:33 AM
URL: http://localhost:24816/
Form: hiddenOffers=Klara+Highline+-+Murphy+Red%2cKlara+Highline+-+Grey&FullName=aaa&Email=aaa&MobileNo=aaa&City=Pune
QueryString: 
Server Name: localhost
User Agent: Mozilla/5.0 (Windows NT 10.0; Win64; x64) AppleWebKit/537.36 (KHTML, like Gecko) Chrome/90.0.4430.212 Safari/537.36
User IP: ::1
User Host Name: ::1
Message: Object reference not set to an instance of an object.
Source: Hafele
TargetSite: System.Web.Mvc.ActionResult Index(Hafele.Models.OffersLeads, System.Web.Mvc.FormCollection)
StackTrace:    at Hafele.Controllers.HomeController.Index(OffersLeads obj, FormCollection fobj) in F:\Ajay\project\Hafele\Hafele\Controllers\HomeController.cs:line 32




Time of Error: 01-06-2021 11:37 AM
URL: http://localhost:24816/
Form: hiddenOffers=Amber+2+Slot+Toaster+%u2013+Jade%2cAmber+2+Slot+Toaster+%u2013+Opal&FullName=sss&Email=sss&MobileNo=ss&City=Pune
QueryString: 
Server Name: localhost
User Agent: Mozilla/5.0 (Windows NT 10.0; Win64; x64) AppleWebKit/537.36 (KHTML, like Gecko) Chrome/90.0.4430.212 Safari/537.36
User IP: ::1
User Host Name: ::1
Message: Object reference not set to an instance of an object.
Source: Hafele
TargetSite: System.Web.Mvc.ActionResult Index(Hafele.Models.OffersLeads, System.Web.Mvc.FormCollection)
StackTrace:    at Hafele.Controllers.HomeController.Index(OffersLeads obj, FormCollection fobj)




Time of Error: 01-06-2021 11:47 AM
URL: http://localhost:24816/
Form: hiddenOffers=Klara+Highline+-+Murphy+Red%2cKlara+Highline+-+Grey&FullName=aaa&Email=aaa&MobileNo=aaa&City=Ahmedabad
QueryString: 
Server Name: localhost
User Agent: Mozilla/5.0 (Windows NT 10.0; Win64; x64) AppleWebKit/537.36 (KHTML, like Gecko) Chrome/90.0.4430.212 Safari/537.36
User IP: ::1
User Host Name: ::1
Message: Object reference not set to an instance of an object.
Source: Hafele
TargetSite: System.Web.Mvc.ActionResult Index(Hafele.Models.OffersLeads, System.Web.Mvc.FormCollection)
StackTrace:    at Hafele.Controllers.HomeController.Index(OffersLeads obj, FormCollection fobj)




Time of Error: 01-06-2021 11:54 AM
URL: http://localhost:24816/
Form: hiddenOffers=Dome+Kettle+-+Red%2cDome+Kettle+-+Grey&FullName=aaa&Email=aaa&MobileNo=123456&City=Ahmedabad
QueryString: 
Server Name: localhost
User Agent: Mozilla/5.0 (Windows NT 10.0; Win64; x64) AppleWebKit/537.36 (KHTML, like Gecko) Chrome/90.0.4430.212 Safari/537.36
User IP: ::1
User Host Name: ::1
Message: Object reference not set to an instance of an object.
Source: Hafele
TargetSite: System.Web.Mvc.ActionResult Index(Hafele.Models.OffersLeads, System.Web.Mvc.FormCollection, System.String)
StackTrace:    at Hafele.Controllers.HomeController.Index(OffersLeads obj, FormCollection fobj, String utm_source) in F:\Ajay\project\Hafele\Hafele\Controllers\HomeController.cs:line 34




Time of Error: 01-06-2021 12:50 PM
URL: http://localhost:24816/
Form: hiddenOffers=Klara+Highline+-+Murphy+Red%2cKlara+Highline+-+Grey&FullName=aaa&Email=aaa&MobileNo=aaa&City=Mumbai+MMR
QueryString: 
Server Name: localhost
User Agent: Mozilla/5.0 (Windows NT 10.0; Win64; x64) AppleWebKit/537.36 (KHTML, like Gecko) Chrome/90.0.4430.212 Safari/537.36
User IP: ::1
User Host Name: ::1
Message: Object reference not set to an instance of an object.
Source: Hafele
TargetSite: System.Web.Mvc.ActionResult Index(Hafele.Models.OffersLeads, System.Web.Mvc.FormCollection)
StackTrace:    at Hafele.Controllers.HomeController.Index(OffersLeads obj, FormCollection fobj)




Time of Error: 01-06-2021 12:55 PM
URL: http://localhost:24816/
Form: hiddenOffers=Klara+Highline+-+Murphy+Red%2cKlara+Highline+-+Grey&FullName=aaa&Email=aaa&MobileNo=22155&City=Pune
QueryString: 
Server Name: localhost
User Agent: Mozilla/5.0 (Windows NT 10.0; Win64; x64) AppleWebKit/537.36 (KHTML, like Gecko) Chrome/90.0.4430.212 Safari/537.36
User IP: ::1
User Host Name: ::1
Message: Object reference not set to an instance of an object.
Source: Hafele
TargetSite: System.Web.Mvc.ActionResult Index(Hafele.Models.OffersLeads, System.Web.Mvc.FormCollection)
StackTrace:    at Hafele.Controllers.HomeController.Index(OffersLeads obj, FormCollection fobj)




Time of Error: 01-06-2021 12:59 PM
URL: http://localhost:24816/
Form: hiddenOffers=Klara+Highline+-+Murphy+Red%2cKlara+Highline+-+Grey&FullName=aaa&Email=aaa&MobileNo=aaa&City=Ahmedabad
QueryString: 
Server Name: localhost
User Agent: Mozilla/5.0 (Windows NT 10.0; Win64; x64) AppleWebKit/537.36 (KHTML, like Gecko) Chrome/90.0.4430.212 Safari/537.36
User IP: ::1
User Host Name: ::1
Message: Object reference not set to an instance of an object.
Source: Hafele
TargetSite: System.Web.Mvc.ActionResult Index(Hafele.Models.OffersLeads, System.Web.Mvc.FormCollection)
StackTrace:    at Hafele.Controllers.HomeController.Index(OffersLeads obj, FormCollection fobj)




Time of Error: 01-06-2021 01:01 PM
URL: http://localhost:24816/
Form: hiddenOffers=Klara+Highline+-+Murphy+Red%2cKlara+Highline+-+Grey&FullName=ddd&Email=ddd&MobileNo=ddd&City=Ahmedabad
QueryString: 
Server Name: localhost
User Agent: Mozilla/5.0 (Windows NT 10.0; Win64; x64) AppleWebKit/537.36 (KHTML, like Gecko) Chrome/90.0.4430.212 Safari/537.36
User IP: ::1
User Host Name: ::1
Message: Object reference not set to an instance of an object.
Source: Hafele
TargetSite: System.Web.Mvc.ActionResult Index(Hafele.Models.OffersLeads, System.Web.Mvc.FormCollection)
StackTrace:    at Hafele.Controllers.HomeController.Index(OffersLeads obj, FormCollection fobj)




Time of Error: 01-06-2021 01:02 PM
URL: http://localhost:24816/
Form: hiddenOffers=Klara+Highline+-+Murphy+Red%2cKlara+Highline+-+Grey&FullName=aaa&Email=aaa&MobileNo=aaa&City=Bangalore
QueryString: 
Server Name: localhost
User Agent: Mozilla/5.0 (Windows NT 10.0; Win64; x64) AppleWebKit/537.36 (KHTML, like Gecko) Chrome/90.0.4430.212 Safari/537.36
User IP: ::1
User Host Name: ::1
Message: Object reference not set to an instance of an object.
Source: Hafele
TargetSite: System.Web.Mvc.ActionResult Index(Hafele.Models.OffersLeads, System.Web.Mvc.FormCollection)
StackTrace:    at Hafele.Controllers.HomeController.Index(OffersLeads obj, FormCollection fobj)




Time of Error: 01-06-2021 01:05 PM
URL: http://localhost:24816/
Form: hiddenOffers=Magnus+Cold+Press+Juicer%2cDome+Kettle+-+Red%2cDome+Kettle+-+Grey&FullName=aa&Email=aaa&MobileNo=aaaa&City=Hyderabad
QueryString: 
Server Name: localhost
User Agent: Mozilla/5.0 (Windows NT 10.0; Win64; x64) AppleWebKit/537.36 (KHTML, like Gecko) Chrome/90.0.4430.212 Safari/537.36
User IP: ::1
User Host Name: ::1
Message: Object reference not set to an instance of an object.
Source: Hafele
TargetSite: System.Web.Mvc.ActionResult Index(Hafele.Models.OffersLeads, System.Web.Mvc.FormCollection)
StackTrace:    at Hafele.Controllers.HomeController.Index(OffersLeads obj, FormCollection fobj) in F:\Ajay\project\Hafele\Hafele\Controllers\HomeController.cs:line 51




Time of Error: 01-06-2021 08:35 PM
URL: http://localhost:24816/Admin/Index
Form: 
QueryString: 
Server Name: localhost
User Agent: Mozilla/5.0 (Windows NT 10.0; Win64; x64) AppleWebKit/537.36 (KHTML, like Gecko) Chrome/90.0.4430.212 Safari/537.36
User IP: ::1
User Host Name: ::1
Message: Could not find stored procedure 'Proc_CMS'.
Source: .Net SqlClient Data Provider
TargetSite: Void OnError(System.Data.SqlClient.SqlException, Boolean, System.Action`1[System.Action])
StackTrace:    at System.Data.SqlClient.SqlConnection.OnError(SqlException exception, Boolean breakConnection, Action`1 wrapCloseInAction)
   at System.Data.SqlClient.SqlInternalConnection.OnError(SqlException exception, Boolean breakConnection, Action`1 wrapCloseInAction)
   at System.Data.SqlClient.TdsParser.ThrowExceptionAndWarning(TdsParserStateObject stateObj, Boolean callerHasConnectionLock, Boolean asyncClose)
   at System.Data.SqlClient.TdsParser.TryRun(RunBehavior runBehavior, SqlCommand cmdHandler, SqlDataReader dataStream, BulkCopySimpleResultSet bulkCopyHandler, TdsParserStateObject stateObj, Boolean& dataReady)
   at System.Data.SqlClient.SqlDataReader.TryConsumeMetaData()
   at System.Data.SqlClient.SqlDataReader.get_MetaData()
   at System.Data.SqlClient.SqlCommand.FinishExecuteReader(SqlDataReader ds, RunBehavior runBehavior, String resetOptionsString, Boolean isInternal, Boolean forDescribeParameterEncryption)
   at System.Data.SqlClient.SqlCommand.RunExecuteReaderTds(CommandBehavior cmdBehavior, RunBehavior runBehavior, Boolean returnStream, Boolean async, Int32 timeout, Task& task, Boolean asyncWrite, Boolean inRetry, SqlDataReader ds, Boolean describeParameterEncryptionRequest)
   at System.Data.SqlClient.SqlCommand.RunExecuteReader(CommandBehavior cmdBehavior, RunBehavior runBehavior, Boolean returnStream, String method, TaskCompletionSource`1 completion, Int32 timeout, Task& task, Boolean& usedCache, Boolean asyncWrite, Boolean inRetry)
   at System.Data.SqlClient.SqlCommand.RunExecuteReader(CommandBehavior cmdBehavior, RunBehavior runBehavior, Boolean returnStream, String method)
   at System.Data.SqlClient.SqlCommand.ExecuteReader(CommandBehavior behavior, String method)
   at System.Data.SqlClient.SqlCommand.ExecuteDbDataReader(CommandBehavior behavior)
   at System.Data.Common.DbCommand.System.Data.IDbCommand.ExecuteReader(CommandBehavior behavior)
   at System.Data.Common.DbDataAdapter.FillInternal(DataSet dataset, DataTable[] datatables, Int32 startRecord, Int32 maxRecords, String srcTable, IDbCommand command, CommandBehavior behavior)
   at System.Data.Common.DbDataAdapter.Fill(DataSet dataSet, Int32 startRecord, Int32 maxRecords, String srcTable, IDbCommand command, CommandBehavior behavior)
   at System.Data.Common.DbDataAdapter.Fill(DataSet dataSet)
   at Hafele.Models.Utility.Display1(String query) in F:\Ajay\project\Hafele\Hafele\Models\Utility.cs:line 143




Time of Error: 01-06-2021 08:35 PM
URL: http://localhost:24816/Admin/index/
Form: 
QueryString: 
Server Name: localhost
User Agent: Mozilla/5.0 (Windows NT 10.0; Win64; x64) AppleWebKit/537.36 (KHTML, like Gecko) Chrome/90.0.4430.212 Safari/537.36
User IP: ::1
User Host Name: ::1
Message: Could not find stored procedure 'Proc_CMS'.
Source: .Net SqlClient Data Provider
TargetSite: Void OnError(System.Data.SqlClient.SqlException, Boolean, System.Action`1[System.Action])
StackTrace:    at System.Data.SqlClient.SqlConnection.OnError(SqlException exception, Boolean breakConnection, Action`1 wrapCloseInAction)
   at System.Data.SqlClient.SqlInternalConnection.OnError(SqlException exception, Boolean breakConnection, Action`1 wrapCloseInAction)
   at System.Data.SqlClient.TdsParser.ThrowExceptionAndWarning(TdsParserStateObject stateObj, Boolean callerHasConnectionLock, Boolean asyncClose)
   at System.Data.SqlClient.TdsParser.TryRun(RunBehavior runBehavior, SqlCommand cmdHandler, SqlDataReader dataStream, BulkCopySimpleResultSet bulkCopyHandler, TdsParserStateObject stateObj, Boolean& dataReady)
   at System.Data.SqlClient.SqlDataReader.TryConsumeMetaData()
   at System.Data.SqlClient.SqlDataReader.get_MetaData()
   at System.Data.SqlClient.SqlCommand.FinishExecuteReader(SqlDataReader ds, RunBehavior runBehavior, String resetOptionsString, Boolean isInternal, Boolean forDescribeParameterEncryption)
   at System.Data.SqlClient.SqlCommand.RunExecuteReaderTds(CommandBehavior cmdBehavior, RunBehavior runBehavior, Boolean returnStream, Boolean async, Int32 timeout, Task& task, Boolean asyncWrite, Boolean inRetry, SqlDataReader ds, Boolean describeParameterEncryptionRequest)
   at System.Data.SqlClient.SqlCommand.RunExecuteReader(CommandBehavior cmdBehavior, RunBehavior runBehavior, Boolean returnStream, String method, TaskCompletionSource`1 completion, Int32 timeout, Task& task, Boolean& usedCache, Boolean asyncWrite, Boolean inRetry)
   at System.Data.SqlClient.SqlCommand.RunExecuteReader(CommandBehavior cmdBehavior, RunBehavior runBehavior, Boolean returnStream, String method)
   at System.Data.SqlClient.SqlCommand.ExecuteReader(CommandBehavior behavior, String method)
   at System.Data.SqlClient.SqlCommand.ExecuteDbDataReader(CommandBehavior behavior)
   at System.Data.Common.DbCommand.System.Data.IDbCommand.ExecuteReader(CommandBehavior behavior)
   at System.Data.Common.DbDataAdapter.FillInternal(DataSet dataset, DataTable[] datatables, Int32 startRecord, Int32 maxRecords, String srcTable, IDbCommand command, CommandBehavior behavior)
   at System.Data.Common.DbDataAdapter.Fill(DataSet dataSet, Int32 startRecord, Int32 maxRecords, String srcTable, IDbCommand command, CommandBehavior behavior)
   at System.Data.Common.DbDataAdapter.Fill(DataSet dataSet)
   at Hafele.Models.Utility.Display1(String query) in F:\Ajay\project\Hafele\Hafele\Models\Utility.cs:line 143




Time of Error: 01-06-2021 09:03 PM
URL: http://localhost:24816/Home/PopupOffers
Form: hiddenOffersPop=Dome+Kettle+Grey%2cQueen+Kettle&FullName=rahul&Email=rahul%40kwebmaker.coom&MobileNo=1234567845&City=Chandigarh&MyOffersName=Dome+Kettle+Grey&MyOffersName=Queen+Kettle
QueryString: 
Server Name: localhost
User Agent: Mozilla/5.0 (Windows NT 10.0; Win64; x64) AppleWebKit/537.36 (KHTML, like Gecko) Chrome/90.0.4430.212 Safari/537.36
User IP: ::1
User Host Name: ::1
Message: The SMTP server requires a secure connection or the client was not authenticated. The server response was: 5.7.0 Authentication Required. Learn more at
Source: System
TargetSite: Void CheckResponse(System.Net.Mail.SmtpStatusCode, System.String)
StackTrace:    at System.Net.Mail.MailCommand.CheckResponse(SmtpStatusCode statusCode, String response)
   at System.Net.Mail.MailCommand.Send(SmtpConnection conn, Byte[] command, MailAddress from, Boolean allowUnicode)
   at System.Net.Mail.SmtpTransport.SendMail(MailAddress sender, MailAddressCollection recipients, String deliveryNotify, Boolean allowUnicode, SmtpFailedRecipientException& exception)
   at System.Net.Mail.SmtpClient.Send(MailMessage message)
   at Hafele.Models.Utility.SendEmail(String Emailbody, String[] Toemailids, String Subject, String FilePath, Stream input)




Time of Error: 01-06-2021 09:10 PM
URL: http://localhost:24816/Home/PopupOffers
Form: hiddenOffersPop=Dome+Kettle+Grey%2cQueen+Kettle&FullName=rahul&Email=rahul%40kwebmaker.com&MobileNo=123456859&City=Bangalore&MyOffersName=Dome+Kettle+Grey&MyOffersName=Queen+Kettle
QueryString: 
Server Name: localhost
User Agent: Mozilla/5.0 (Windows NT 10.0; Win64; x64) AppleWebKit/537.36 (KHTML, like Gecko) Chrome/90.0.4430.212 Safari/537.36
User IP: ::1
User Host Name: ::1
Message: The SMTP server requires a secure connection or the client was not authenticated. The server response was: 5.7.0 Authentication Required. Learn more at
Source: System
TargetSite: Void CheckResponse(System.Net.Mail.SmtpStatusCode, System.String)
StackTrace:    at System.Net.Mail.MailCommand.CheckResponse(SmtpStatusCode statusCode, String response)
   at System.Net.Mail.MailCommand.Send(SmtpConnection conn, Byte[] command, MailAddress from, Boolean allowUnicode)
   at System.Net.Mail.SmtpTransport.SendMail(MailAddress sender, MailAddressCollection recipients, String deliveryNotify, Boolean allowUnicode, SmtpFailedRecipientException& exception)
   at System.Net.Mail.SmtpClient.Send(MailMessage message)
   at Hafele.Models.Utility.SendEmail(String Emailbody, String[] Toemailids, String Subject, String FilePath, Stream input)




Time of Error: 01-06-2021 09:15 PM
URL: http://localhost:24816/Home/PopupOffers
Form: hiddenOffersPop=Dome+Kettle+Grey%2cAmber+2+Slot+Toaster+Opal&FullName=aaa&Email=aaa%40kwebmaker.com&MobileNo=155555&City=Bangalore&MyOffersName=Dome+Kettle+Grey&MyOffersName=Amber+2+Slot+Toaster+Opal
QueryString: 
Server Name: localhost
User Agent: Mozilla/5.0 (Windows NT 10.0; Win64; x64) AppleWebKit/537.36 (KHTML, like Gecko) Chrome/90.0.4430.212 Safari/537.36
User IP: ::1
User Host Name: ::1
Message: The SMTP server requires a secure connection or the client was not authenticated. The server response was: 5.7.0 Authentication Required. Learn more at
Source: System
TargetSite: Void CheckResponse(System.Net.Mail.SmtpStatusCode, System.String)
StackTrace:    at System.Net.Mail.MailCommand.CheckResponse(SmtpStatusCode statusCode, String response)
   at System.Net.Mail.MailCommand.Send(SmtpConnection conn, Byte[] command, MailAddress from, Boolean allowUnicode)
   at System.Net.Mail.SmtpTransport.SendMail(MailAddress sender, MailAddressCollection recipients, String deliveryNotify, Boolean allowUnicode, SmtpFailedRecipientException& exception)
   at System.Net.Mail.SmtpClient.Send(MailMessage message)
   at Hafele.Models.Utility.SendEmail(String Emailbody, String[] Toemailids, String Subject, String FilePath, Stream input)




Time of Error: 01-06-2021 09:17 PM
URL: http://localhost:24816/Home/PopupOffers
Form: hiddenOffersPop=Amber+2+Slot+Toaster+Opal&FullName=rahul&Email=rahul%40kwebmaker.com&MobileNo=1234567895&City=Delhi+NCR&MyOffersName=Amber+2+Slot+Toaster+Opal
QueryString: 
Server Name: localhost
User Agent: Mozilla/5.0 (Windows NT 10.0; Win64; x64) AppleWebKit/537.36 (KHTML, like Gecko) Chrome/90.0.4430.212 Safari/537.36
User IP: ::1
User Host Name: ::1
Message: The SMTP server requires a secure connection or the client was not authenticated. The server response was: 5.7.0 Authentication Required. Learn more at
Source: System
TargetSite: Void CheckResponse(System.Net.Mail.SmtpStatusCode, System.String)
StackTrace:    at System.Net.Mail.MailCommand.CheckResponse(SmtpStatusCode statusCode, String response)
   at System.Net.Mail.MailCommand.Send(SmtpConnection conn, Byte[] command, MailAddress from, Boolean allowUnicode)
   at System.Net.Mail.SmtpTransport.SendMail(MailAddress sender, MailAddressCollection recipients, String deliveryNotify, Boolean allowUnicode, SmtpFailedRecipientException& exception)
   at System.Net.Mail.SmtpClient.Send(MailMessage message)
   at Hafele.Models.Utility.SendEmail(String Emailbody, String[] Toemailids, String Subject, String FilePath, Stream input)




